{
  "sidebars": [
    { "name": "Home", "isFocus": true },
    { "name": "Tags", "isFocus": false }
  ],
  "profile": {
    "total": 100,
    "totalPages": 4,
    "page": 1,
    "pageSize": 30,
    "data": [
      {
        "id": "067e1fb7-c039-4c8f-8d06-004a3f97ef0b",
        "name": "Cathy Koss",
        "username": "Jose64",
        "avater": "https://cdn.fakercloud.com/avatars/dhooyenga_128.jpg",
        "isFollowing": true
      },
      {
        "id": "a9f464f1-059a-4748-9852-d9655f46fd10",
        "name": "Ariane Haag",
        "username": "Reggie.Wisoky15",
        "avater": "https://cdn.fakercloud.com/avatars/algunsanabria_128.jpg",
        "isFollowing": false
      },
      {
        "id": "c359be4e-8dd7-40d9-87a9-24383197301d",
        "name": "Rhianna McCullough",
        "username": "Agustina_Sipes",
        "avater": "https://cdn.fakercloud.com/avatars/xamorep_128.jpg",
        "isFollowing": true
      },
      {
        "id": "a62f7955-9207-446b-8a45-98666a29fd97",
        "name": "Margot Greenholt",
        "username": "Sid_Nader",
        "avater": "https://cdn.fakercloud.com/avatars/alexandermayes_128.jpg",
        "isFollowing": false
      },
      {
        "id": "4b83084f-9874-45e8-9ed9-270f5e1d454a",
        "name": "Audra Hintz",
        "username": "Kurt_Brekke",
        "avater": "https://cdn.fakercloud.com/avatars/ankitind_128.jpg",
        "isFollowing": true
      },
      {
        "id": "aa4288ca-1f2a-47ff-94c4-f877c8a093e1",
        "name": "Geovany Schneider",
        "username": "Benedict_Williamson68",
        "avater": "https://cdn.fakercloud.com/avatars/kucingbelang4_128.jpg",
        "isFollowing": true
      },
      {
        "id": "528ebd3c-a8d6-45e2-80aa-81f5c0e16f7a",
        "name": "Jermain Effertz",
        "username": "Queen_Hayes92",
        "avater": "https://cdn.fakercloud.com/avatars/ariil_128.jpg",
        "isFollowing": false
      },
      {
        "id": "6b75e2f8-18c8-4378-b18f-0482001ad9b7",
        "name": "Tiffany Hoppe",
        "username": "Lennie.Gislason",
        "avater": "https://cdn.fakercloud.com/avatars/joetruesdell_128.jpg",
        "isFollowing": false
      },
      {
        "id": "d925dca7-1913-4b40-9fa9-cdb6a6f20c0a",
        "name": "Kurt Wuckert",
        "username": "Adeline_Rutherford75",
        "avater": "https://cdn.fakercloud.com/avatars/pcridesagain_128.jpg",
        "isFollowing": false
      },
      {
        "id": "78f36607-ea0c-44ca-bb87-bbc9d748e2a9",
        "name": "Lauryn Hills",
        "username": "Triston.Howe",
        "avater": "https://cdn.fakercloud.com/avatars/taylorling_128.jpg",
        "isFollowing": true
      },
      {
        "id": "9ffcf98e-f2f3-4321-9832-e0df9d7ad3e6",
        "name": "Wilfred Goodwin",
        "username": "Alize_Renner71",
        "avater": "https://cdn.fakercloud.com/avatars/abelcabans_128.jpg",
        "isFollowing": true
      },
      {
        "id": "dcc640a7-1d63-49bf-aa62-53a4a80e7856",
        "name": "Rita Cummerata",
        "username": "Sincere_Bergnaum52",
        "avater": "https://cdn.fakercloud.com/avatars/urrutimeoli_128.jpg",
        "isFollowing": false
      },
      {
        "id": "98bbc3d1-0013-43f0-9f7e-b003f4a57048",
        "name": "Leonard Lebsack",
        "username": "Margaret.Feil42",
        "avater": "https://cdn.fakercloud.com/avatars/doooon_128.jpg",
        "isFollowing": true
      },
      {
        "id": "7614e395-67e8-4469-bf15-30ec87dcc966",
        "name": "Elisabeth Dibbert",
        "username": "Ena.Cummings",
        "avater": "https://cdn.fakercloud.com/avatars/albertaugustin_128.jpg",
        "isFollowing": false
      },
      {
        "id": "2ac58a08-71c4-4f2c-9dd4-28066cff0e89",
        "name": "Imani McCullough",
        "username": "Georgiana95",
        "avater": "https://cdn.fakercloud.com/avatars/kianoshp_128.jpg",
        "isFollowing": true
      },
      {
        "id": "b5a0ec3c-5698-47f5-902f-ff4600b487aa",
        "name": "Eileen Hane",
        "username": "Kaylee.Volkman",
        "avater": "https://cdn.fakercloud.com/avatars/doooon_128.jpg",
        "isFollowing": false
      },
      {
        "id": "f558344e-3cfe-4731-859e-aeeacdce4a44",
        "name": "Bertram Koepp",
        "username": "Felipe_Wisoky",
        "avater": "https://cdn.fakercloud.com/avatars/pifagor_128.jpg",
        "isFollowing": true
      },
      {
        "id": "752ccf9e-60cd-48ae-a860-d60180030ba9",
        "name": "Maurine Friesen",
        "username": "Karli_Wilderman",
        "avater": "https://cdn.fakercloud.com/avatars/peterlandt_128.jpg",
        "isFollowing": false
      },
      {
        "id": "9725adaf-778d-4905-ad0c-bfb631d774a0",
        "name": "Ethelyn Wunsch",
        "username": "Claude.Weimann71",
        "avater": "https://cdn.fakercloud.com/avatars/dmackerman_128.jpg",
        "isFollowing": true
      },
      {
        "id": "8363dbcf-1a51-4305-8324-5f602f2634c0",
        "name": "Enoch Lowe",
        "username": "Stephany_Toy",
        "avater": "https://cdn.fakercloud.com/avatars/mastermindesign_128.jpg",
        "isFollowing": true
      },
      {
        "id": "ec49e983-698d-410d-b4f8-578cb450dbe6",
        "name": "Cale Nicolas",
        "username": "Arch_Ward31",
        "avater": "https://cdn.fakercloud.com/avatars/agustincruiz_128.jpg",
        "isFollowing": false
      },
      {
        "id": "b9e205b8-7a13-4f5f-96bc-5244f7f47d8d",
        "name": "Viola Jacobson",
        "username": "Gordon_Mosciski37",
        "avater": "https://cdn.fakercloud.com/avatars/yigitpinarbasi_128.jpg",
        "isFollowing": false
      },
      {
        "id": "5b417aaf-47cb-4d57-bb60-25f31a73eb99",
        "name": "Savanna Ward",
        "username": "Tom85",
        "avater": "https://cdn.fakercloud.com/avatars/cadikkara_128.jpg",
        "isFollowing": false
      },
      {
        "id": "8c018276-c67c-475c-98a9-e351a67651fc",
        "name": "Veronica Abernathy",
        "username": "Natalie98",
        "avater": "https://cdn.fakercloud.com/avatars/AlbertoCococi_128.jpg",
        "isFollowing": true
      },
      {
        "id": "5d578071-6beb-421a-a3a9-8059467e228b",
        "name": "Selena Oberbrunner",
        "username": "Oda_Moen13",
        "avater": "https://cdn.fakercloud.com/avatars/incubo82_128.jpg",
        "isFollowing": true
      },
      {
        "id": "6c6de219-d69c-4c6a-b23b-e69b2ba4744d",
        "name": "Aisha O'Reilly",
        "username": "Jace36",
        "avater": "https://cdn.fakercloud.com/avatars/myastro_128.jpg",
        "isFollowing": true
      },
      {
        "id": "c4ff5375-dfae-45a9-a294-c9cc63acf35e",
        "name": "Isaiah Schultz",
        "username": "Josh_Strosin20",
        "avater": "https://cdn.fakercloud.com/avatars/SlaapMe_128.jpg",
        "isFollowing": true
      },
      {
        "id": "1141240a-08fe-4784-9e15-1f69014bd3fc",
        "name": "Fidel Kuhn",
        "username": "Payton.Tremblay",
        "avater": "https://cdn.fakercloud.com/avatars/miguelkooreman_128.jpg",
        "isFollowing": true
      },
      {
        "id": "a05ebb6a-39fb-476d-809b-4ff7ae19c60c",
        "name": "Lucas Legros",
        "username": "Patience70",
        "avater": "https://cdn.fakercloud.com/avatars/buzzusborne_128.jpg",
        "isFollowing": true
      },
      {
        "id": "e8db1e63-9945-4486-b26d-765f677590de",
        "name": "Leon Lowe",
        "username": "Vada94",
        "avater": "https://cdn.fakercloud.com/avatars/ifarafonow_128.jpg",
        "isFollowing": false
      }
    ]
  }
}
